myscript.knit
…
## `summarise()` has grouped output by 'participant', 'experiment', 'band'. You can override using the `.groups` argument.

all_data_summary_1

## # A tibble: 84 x 6
## # Groups:   participant, experiment, band [12]
##    participant experiment band  region         mean_power sd_power
##          <dbl>      <dbl> <chr> <chr>               <dbl>    <dbl>
##  1           1          1 alpha Central             1.46    0.177 
##  2           1          1 alpha Left frontal        0.863   0.182 
##  3           1          1 alpha Left temporal       1.09    0.217 
##  4           1          1 alpha Occipital           2.59    0.426 
##  5           1          1 alpha Parietal            1.83    0.326 
##  6           1          1 alpha Right frontal       1.09    0.158 
##  7           1          1 alpha Right temporal      1.18    0.169 
##  8           1          1 beta  Central             0.693   0.0594
##  9           1          1 beta  Left frontal        0.396   0.0276
## 10           1          1 beta  Left temporal       0.545   0.0475
## #  with 74 more rows
…
